\relax 
\providecommand\HyperFirstAtBeginDocument{\AtBeginDocument}
\HyperFirstAtBeginDocument{\ifx\hyper@anchor\@undefined
\global\let\oldcontentsline\contentsline
\gdef\contentsline#1#2#3#4{\oldcontentsline{#1}{#2}{#3}}
\global\let\oldnewlabel\newlabel
\gdef\newlabel#1#2{\newlabelxx{#1}#2}
\gdef\newlabelxx#1#2#3#4#5#6{\oldnewlabel{#1}{{#2}{#3}}}
\AtEndDocument{\ifx\hyper@anchor\@undefined
\let\contentsline\oldcontentsline
\let\newlabel\oldnewlabel
\fi}
\fi}
\global\let\hyper@last\relax 
\gdef\HyperFirstAtBeginDocument#1{#1}
\providecommand\HyField@AuxAddToFields[1]{}
\providecommand\HyField@AuxAddToCoFields[2]{}
\@writefile{toc}{\contentsline {section}{Formal Education}{1}{section*.1}\protected@file@percent }
\@writefile{toc}{\contentsline {section}{Recent Positions}{1}{section*.2}\protected@file@percent }
\@writefile{toc}{\contentsline {section}{Honors \& Awards}{2}{section*.3}\protected@file@percent }
\@writefile{toc}{\contentsline {section}{Publications}{2}{section*.4}\protected@file@percent }
\@writefile{toc}{\contentsline {subsection}{\textsc  {Under Revision}}{2}{section*.5}\protected@file@percent }
\@writefile{toc}{\contentsline {section}{Funding}{3}{section*.6}\protected@file@percent }
\@writefile{toc}{\contentsline {subsection}{\textsc  {Author and Beneficiary}}{3}{section*.7}\protected@file@percent }
\@writefile{toc}{\contentsline {subsection}{\textsc  {Collaborations}}{3}{section*.8}\protected@file@percent }
\@writefile{toc}{\contentsline {section}{Research Talks}{3}{section*.9}\protected@file@percent }
\@writefile{toc}{\contentsline {section}{Research Posters}{5}{section*.10}\protected@file@percent }
\@writefile{toc}{\contentsline {section}{Teaching Experience}{5}{section*.11}\protected@file@percent }
\@writefile{toc}{\contentsline {subsection}{\textsc  {Graduate School}}{5}{section*.12}\protected@file@percent }
\@writefile{toc}{\contentsline {subsection}{\textsc  {College Level}}{5}{section*.13}\protected@file@percent }
\@writefile{toc}{\contentsline {subsection}{\textsc  {K-12}}{6}{section*.14}\protected@file@percent }
\@writefile{toc}{\contentsline {subsection}{\textsc  {Mentoring}}{6}{section*.15}\protected@file@percent }
\@writefile{toc}{\contentsline {subsection}{\textsc  {Teaching Interests}}{6}{section*.16}\protected@file@percent }
\@writefile{toc}{\contentsline {section}{Additional Training}{7}{section*.17}\protected@file@percent }
\@writefile{toc}{\contentsline {section}{Reviews}{7}{section*.18}\protected@file@percent }
\@writefile{toc}{\contentsline {section}{Languages}{7}{section*.19}\protected@file@percent }
\@writefile{toc}{\contentsline {section}{Programming Languages}{7}{section*.20}\protected@file@percent }
\@writefile{toc}{\contentsline {section}{Cluster Management}{7}{section*.21}\protected@file@percent }
\@writefile{toc}{\contentsline {section}{Software Development}{8}{section*.22}\protected@file@percent }
